verbatimtex
%&latex
\documentclass{article}
\begin{document}
etex

filenametemplate "%j%c.mps";
beginfig(1);
u:=4cm;

z1=(2u,2u);
z2=(4u,2u);
z3=(4u,3u);
z4=(2u,3u);

draw z1--z2--z3--z4--cycle;

draw (3u,2.5u)--(2u,3.2u) withpen pencircle scaled 2 withcolor red;
draw (3u,2.5u)--(2u,1.8u) withpen pencircle scaled 2 withcolor red;

label.rt(btex $\Omega^+$ (Fluid) etex,(3.5u,2.5u));
label.rt(btex (Structure) $\Omega^-$ etex,(2.2u,2.5u));


endfig;
end;

